===========Generating Bitstream===========
# IDMUX (count=6)
00000000: 00 00 00 00 00 00
# IOPORT_0 (count=7)
00000006: 00 00 00 00 00 00 00
# IOPINS0_0 (count=16)
0000000d: 00 00 00 00 00 00 00 00 00 00 00 00 00 00 00 00

# IOPORT_1 (count=7)
0000001d: 00 00 00 00 00 00 00
# IOPINS0_1 (count=16)
00000024: 00 00 00 00 00 00 00 00 00 00 00 00 00 00 00 00

# IOPORT_2 (count=7)
00000034: 00 00 00 00 00 00 00
# IOPINS0_2 (count=16)
0000003b: 00 00 00 00 00 00 00 00 00 00 00 00 00 00 00 00

# IOPORT_3 (count=7)
0000004b: 00 00 00 00 00 00 00
# IOPINS0_3 (count=16)
00000052: 00 00 00 00 00 00 00 00 00 00 00 00 00 00 00 00

# IOPORT_4 (count=7)
00000062: 00 00 00 00 00 00 00
# IOPINS0_4 (count=16)
00000069: 00 00 00 00 00 00 00 00 00 00 00 00 00 00 00 00

# IOPORT_5 (count=7)
00000079: 00 00 00 00 00 00 00
# IOPINS0_5 (count=16)
00000080: 00 00 00 00 00 00 00 00 00 00 00 00 00 00 00 00

# IOPORT_6 (count=7)
00000090: 00 00 00 00 00 00 00
# IOPINS0_6 (count=16)
00000097: 00 00 00 00 00 00 00 00 00 00 00 00 00 00 00 00

# IOPORT_7 (count=6)
000000a7: 00 00 00 00 00 00
# IOPINS0_7 (count=16)
000000ad: 00 00 00 00 00 00 00 00 00 00 00 00 00 00 00 00

# IOPORT_8 (count=7)
000000bd: 00 00 00 00 00 00 00
# IOPINS0_8 (count=16)
000000c4: 00 00 00 00 00 00 00 00 00 00 00 00 00 00 00 00

# IDMUX_IRQ (count=8)
000000d4: 00 00 00 00 00 00 00 00
# CYDEV_SLOWCLK_ILO_CR0 (count=1)
000000dc: 02
# CYDEV_CLKDIST_CR (count=1)
000000dd: 08
# CYDEV_FASTCLK_IMO_CR (count=1)
000000de: 03
# CYDEV_FASTCLK_PLL_P (count=2)
000000df: 08 00
# CYDEV_FASTCLK_PLL_CFG0 (count=2)
000000e1: 51 12
# CYDEV_CLKDIST_MSTR0 (count=2)
000000e3: 00 01
# CYDEV_CLKDIST_MSTR0 (count=1)
000000e5: 07
# CYDEV_CLKDIST_BCFG0 (count=1)
000000e6: 00
# CYDEV_CLKDIST_BCFG2 (count=1)
000000e7: 48
# CYDEV_CLKDIST_MSTR0 (count=1)
000000e8: 00
# CYDEV_CLKDIST_LD (count=1)
000000e9: 02
# UDB_1_5_0_CONFIG (count=128)
000000ea: 00 00 00 00 00 00 00 00 00 00 00 00 00 00 00 00
000000fa: 00 00 00 00 00 00 00 00 00 00 00 00 00 00 00 00
0000010a: 00 00 00 00 00 00 00 00 00 00 00 00 00 00 00 00
0000011a: 00 00 00 00 00 00 00 00 00 00 00 00 00 00 00 00
0000012a: 00 00 00 00 00 00 00 00 00 00 00 00 00 00 00 00
0000013a: 00 00 00 00 00 00 00 00 00 00 00 00 00 00 00 00
0000014a: 00 00 00 00 00 00 00 00 00 00 00 00 00 00 00 00
0000015a: 00 00 00 00 00 00 00 00 00 00 00 00 00 00 00 00

# UDB_1_5_1_CONFIG (count=128)
0000016a: 00 00 00 00 00 00 00 00 00 00 00 00 00 00 00 00
0000017a: 00 00 00 00 00 00 00 00 00 00 00 00 00 00 00 00
0000018a: 00 00 00 00 00 00 00 00 00 00 00 00 00 00 00 00
0000019a: 00 00 00 00 00 00 00 00 00 00 00 00 00 00 00 00
000001aa: 00 00 00 00 00 00 00 00 00 00 00 00 00 00 00 00
000001ba: 00 00 00 00 00 00 00 00 00 00 00 00 00 00 00 00
000001ca: 00 00 00 00 00 00 00 00 00 00 00 00 00 00 00 00
000001da: 00 00 00 00 00 00 00 00 00 00 00 00 00 00 00 00

# UDB_1_4_1_CONFIG (count=128)
000001ea: 00 00 00 00 00 00 00 00 00 00 00 00 00 00 00 00
000001fa: 00 00 00 00 00 00 00 00 00 00 00 00 00 00 00 00
0000020a: 00 00 00 00 00 00 00 00 00 00 00 00 00 00 00 00
0000021a: 00 00 00 00 00 00 00 00 00 00 00 00 00 00 00 00
0000022a: 00 00 00 00 00 00 00 00 00 00 00 00 00 00 00 00
0000023a: 00 00 00 00 00 00 00 00 00 00 00 00 00 00 00 00
0000024a: 00 00 00 00 00 00 00 00 00 00 00 00 00 00 00 00
0000025a: 00 00 00 00 00 00 00 00 00 00 00 00 00 00 00 00

# UDB_1_4_0_CONFIG (count=128)
0000026a: 00 00 00 00 00 00 00 00 00 00 00 00 00 00 00 00
0000027a: 00 00 00 00 00 00 00 00 00 00 00 00 00 00 00 00
0000028a: 00 00 00 00 00 00 00 00 00 00 00 00 00 00 00 00
0000029a: 00 00 00 00 00 00 00 00 00 00 00 00 00 00 00 00
000002aa: 00 00 00 00 00 00 00 00 00 00 00 00 00 00 00 00
000002ba: 00 00 00 00 00 00 00 00 00 00 00 00 00 00 00 00
000002ca: 00 00 00 00 00 00 00 00 00 00 00 00 00 00 00 00
000002da: 00 00 00 00 00 00 00 00 00 00 00 00 00 00 00 00

# UDB_1_3_0_CONFIG (count=128)
000002ea: 00 00 00 00 00 00 00 00 00 00 00 00 00 00 00 00
000002fa: 00 00 00 00 00 00 00 00 00 00 00 00 00 00 00 00
0000030a: 00 00 00 00 00 00 00 00 00 00 00 00 00 00 00 00
0000031a: 00 00 00 00 00 00 00 00 00 00 00 00 00 00 00 00
0000032a: 00 00 00 00 00 00 00 00 00 00 00 00 00 00 00 00
0000033a: 00 00 00 00 00 00 00 00 00 00 00 00 00 00 00 00
0000034a: 00 00 00 00 00 00 00 00 00 00 00 00 00 00 00 00
0000035a: 00 00 00 00 00 00 00 00 00 00 00 00 00 00 00 00

# UDB_1_3_1_CONFIG (count=128)
0000036a: 00 00 00 00 00 00 00 00 00 00 00 00 00 00 00 00
0000037a: 00 00 00 00 00 00 00 00 00 00 00 00 00 00 00 00
0000038a: 00 00 00 00 00 00 00 00 00 00 00 00 00 00 00 00
0000039a: 00 00 00 00 00 00 00 00 00 00 00 00 00 00 00 00
000003aa: 00 00 00 00 00 00 00 00 00 00 00 00 00 00 00 00
000003ba: 00 00 00 00 00 00 00 00 00 00 00 00 00 00 00 00
000003ca: 00 00 00 00 00 00 00 00 00 00 00 00 00 00 00 00
000003da: 00 00 00 00 00 00 00 00 00 00 00 00 00 00 00 00

# UDB_1_2_1_CONFIG (count=128)
000003ea: 00 00 00 00 00 00 00 00 00 00 00 00 00 00 00 00
000003fa: 00 00 00 00 00 00 00 00 00 00 00 00 00 00 00 00
0000040a: 00 00 00 00 00 00 00 00 00 00 00 00 00 00 00 00
0000041a: 00 00 00 00 00 00 00 00 00 00 00 00 00 00 00 00
0000042a: 00 00 00 00 00 00 00 00 00 00 00 00 00 00 00 00
0000043a: 00 00 00 00 00 00 00 00 00 00 00 00 00 00 00 00
0000044a: 00 00 00 00 00 00 00 00 00 00 00 00 00 00 00 00
0000045a: 00 00 00 00 00 00 00 00 00 00 00 00 00 00 00 00

# UDB_1_2_0_CONFIG (count=128)
0000046a: 00 00 00 00 00 00 00 00 00 00 00 00 00 00 00 00
0000047a: 00 00 00 00 00 00 00 00 00 00 00 00 00 00 00 00
0000048a: 00 00 00 00 00 00 00 00 00 00 00 00 00 00 00 00
0000049a: 00 00 00 00 00 00 00 00 00 00 00 00 00 00 00 00
000004aa: 00 00 00 00 00 00 00 00 00 00 00 00 00 00 00 00
000004ba: 00 00 00 00 00 00 00 00 00 00 00 00 00 00 00 00
000004ca: 00 00 00 00 00 00 00 00 00 00 00 00 00 00 00 00
000004da: 00 00 00 00 00 00 00 00 00 00 00 00 00 00 00 00

# UDB_0_2_1_CONFIG (count=128)
000004ea: 00 00 00 00 00 00 00 00 00 00 00 00 00 00 00 00
000004fa: 00 00 00 00 00 00 00 00 00 00 00 00 00 00 00 00
0000050a: 00 00 00 00 00 00 00 00 00 00 00 00 00 00 00 00
0000051a: 00 00 00 00 00 00 00 00 00 00 00 00 00 00 00 00
0000052a: 00 00 00 00 00 00 00 00 00 00 00 00 00 00 00 00
0000053a: 00 00 00 00 00 00 00 00 00 00 00 00 00 00 00 00
0000054a: 00 00 00 00 00 00 00 00 00 00 00 00 00 00 00 00
0000055a: 00 00 00 00 00 00 00 00 00 00 00 00 00 00 00 00

# UDB_0_2_0_CONFIG (count=128)
0000056a: 00 00 00 00 00 00 00 00 00 00 00 00 00 00 00 00
0000057a: 00 00 00 00 00 00 00 00 00 00 00 00 00 00 00 00
0000058a: 00 00 00 00 00 00 00 00 00 00 00 00 00 00 00 00
0000059a: 00 00 00 00 00 00 00 00 00 00 00 00 00 00 00 00
000005aa: 00 00 00 00 00 00 00 00 00 00 00 00 00 00 00 00
000005ba: 00 00 00 00 00 00 00 00 00 00 00 00 00 00 00 00
000005ca: 00 00 00 00 00 00 00 00 00 00 00 00 00 00 00 00
000005da: 00 00 00 00 00 00 00 00 00 00 00 00 00 00 00 00

# UDB_0_3_0_CONFIG (count=128)
000005ea: 00 00 00 00 00 00 00 00 00 00 00 00 00 00 00 00
000005fa: 00 00 00 00 00 00 00 00 00 00 00 00 00 00 00 00
0000060a: 00 00 00 00 00 00 00 00 00 00 00 00 00 00 00 00
0000061a: 00 00 00 00 00 00 00 00 00 00 00 00 00 00 00 00
0000062a: 00 00 00 00 00 00 00 00 00 00 00 00 00 00 00 00
0000063a: 00 00 00 00 00 00 00 00 00 00 00 00 00 00 00 00
0000064a: 00 00 00 00 00 00 00 00 00 00 00 00 00 00 00 00
0000065a: 00 00 00 00 00 00 00 00 00 00 00 00 00 00 00 00

# UDB_0_3_1_CONFIG (count=128)
0000066a: 00 00 00 00 00 00 00 00 00 00 00 00 00 00 00 00
0000067a: 00 00 00 00 00 00 00 00 00 00 00 00 00 00 00 00
0000068a: 00 00 00 00 00 00 00 00 00 00 00 00 00 00 00 00
0000069a: 00 00 00 00 00 00 00 00 00 00 00 00 00 00 00 00
000006aa: 00 00 00 00 00 00 00 00 00 00 00 00 00 00 00 00
000006ba: 00 00 00 00 00 00 00 00 00 00 00 00 00 00 00 00
000006ca: 00 00 00 00 00 00 00 00 00 00 00 00 00 00 00 00
000006da: 00 00 00 00 00 00 00 00 00 00 00 00 00 00 00 00

# UDB_0_4_1_CONFIG (count=128)
000006ea: 00 00 00 00 00 00 00 00 00 00 00 00 00 00 00 00
000006fa: 00 00 00 00 00 00 00 00 00 00 00 00 00 00 00 00
0000070a: 00 00 00 00 00 00 00 00 00 00 00 00 00 00 00 00
0000071a: 00 00 00 00 00 00 00 00 00 00 00 00 00 00 00 00
0000072a: 00 00 00 00 00 00 00 00 00 00 00 00 00 00 00 00
0000073a: 00 00 00 00 00 00 00 00 00 00 00 00 00 00 00 00
0000074a: 00 00 00 00 00 00 00 00 00 00 00 00 00 00 00 00
0000075a: 00 00 00 00 00 00 00 00 00 00 00 00 00 00 00 00

# UDB_0_4_0_CONFIG (count=128)
0000076a: 00 00 00 00 00 00 00 00 00 00 00 00 00 00 00 00
0000077a: 00 00 00 00 00 00 00 00 00 00 00 00 00 00 00 00
0000078a: 00 00 00 00 00 00 00 00 00 00 00 00 00 00 00 00
0000079a: 00 00 00 00 00 00 00 00 00 00 00 00 00 00 00 00
000007aa: 00 00 00 00 00 00 00 00 00 00 00 00 00 00 00 00
000007ba: 00 00 00 00 00 00 00 00 00 00 00 00 00 00 00 00
000007ca: 00 00 00 00 00 00 00 00 00 00 00 00 00 00 00 00
000007da: 00 00 00 00 00 00 00 00 00 00 00 00 00 00 00 00

# UDB_0_5_0_CONFIG (count=128)
000007ea: 00 00 00 00 00 00 00 00 00 00 00 00 00 00 00 00
000007fa: 00 00 00 00 00 00 00 00 00 00 00 00 00 00 00 00
0000080a: 00 00 00 00 00 00 00 00 00 00 00 00 00 00 00 00
0000081a: 00 00 00 00 00 00 00 00 00 00 00 00 00 00 00 00
0000082a: 00 00 00 00 00 00 00 00 00 00 00 00 00 00 00 00
0000083a: 00 00 00 00 00 00 00 00 00 00 00 00 00 00 00 00
0000084a: 00 00 00 00 00 00 00 00 00 00 00 00 00 00 00 00
0000085a: 00 00 00 00 00 00 00 00 00 00 00 00 00 00 00 00

# UDB_0_5_1_CONFIG (count=128)
0000086a: 00 00 00 00 00 00 00 00 00 00 00 00 00 00 00 00
0000087a: 00 00 00 00 00 00 00 00 00 00 00 00 00 00 00 00
0000088a: 00 00 00 00 00 00 00 00 00 00 00 00 00 00 00 00
0000089a: 00 00 00 00 00 00 00 00 00 00 00 00 00 00 00 00
000008aa: 00 00 00 00 00 00 00 00 00 00 00 00 00 00 00 00
000008ba: 00 00 00 00 00 00 00 00 00 00 00 00 00 00 00 00
000008ca: 00 00 00 00 00 00 00 00 00 00 00 00 00 00 00 00
000008da: 00 00 00 00 00 00 00 00 00 00 00 00 00 00 00 00

# UDB_1_0_0_CONFIG (count=128)
000008ea: 00 00 00 00 00 00 00 00 00 00 00 00 00 00 00 00
000008fa: 00 00 00 00 00 00 00 00 00 00 00 00 00 00 00 00
0000090a: 00 00 00 00 00 00 00 00 00 00 00 00 00 00 00 00
0000091a: 00 00 00 00 00 00 00 00 00 00 00 00 00 00 00 00
0000092a: 00 00 00 00 00 00 00 00 00 00 00 00 00 00 00 00
0000093a: 00 00 00 00 00 00 00 00 00 00 00 00 00 00 00 00
0000094a: 00 00 00 00 00 00 00 00 00 00 00 00 00 00 00 00
0000095a: 00 00 00 00 00 00 00 00 00 00 00 00 00 00 00 00

# UDB_1_0_1_CONFIG (count=128)
0000096a: 00 00 00 00 00 00 00 00 00 00 00 00 00 00 00 00
0000097a: 00 00 00 00 00 00 00 00 00 00 00 00 00 00 00 00
0000098a: 00 00 00 00 00 00 00 00 00 00 00 00 00 00 00 00
0000099a: 00 00 00 00 00 00 00 00 00 00 00 00 00 00 00 00
000009aa: 00 00 00 00 00 00 00 00 00 00 00 00 00 00 00 00
000009ba: 00 00 00 00 00 00 00 00 00 00 00 00 00 00 00 00
000009ca: 00 00 00 00 00 00 00 00 00 00 00 00 00 00 00 00
000009da: 00 00 00 00 00 00 00 00 00 00 00 00 00 00 00 00

# UDB_1_1_1_CONFIG (count=128)
000009ea: 00 00 00 00 00 00 00 00 00 00 00 00 00 00 00 00
000009fa: 00 00 00 00 00 00 00 00 00 00 00 00 00 00 00 00
00000a0a: 00 00 00 00 00 00 00 00 00 00 00 00 00 00 00 00
00000a1a: 00 00 00 00 00 00 00 00 00 00 00 00 00 00 00 00
00000a2a: 00 00 00 00 00 00 00 00 00 00 00 00 00 00 00 00
00000a3a: 00 00 00 00 00 00 00 00 00 00 00 00 00 00 00 00
00000a4a: 00 00 00 00 00 00 00 00 00 00 00 00 00 00 00 00
00000a5a: 00 00 00 00 00 00 00 00 00 00 00 00 00 00 00 00

# UDB_1_1_0_CONFIG (count=128)
00000a6a: 00 00 00 00 00 00 00 00 00 00 00 00 00 00 00 00
00000a7a: 00 00 00 00 00 00 00 00 00 00 00 00 00 00 00 00
00000a8a: 00 00 00 00 00 00 00 00 00 00 00 00 00 00 00 00
00000a9a: 00 00 00 00 00 00 00 00 00 00 00 00 00 00 00 00
00000aaa: 00 00 00 00 00 00 00 00 00 00 00 00 00 00 00 00
00000aba: 00 00 00 00 00 00 00 00 00 00 00 00 00 00 00 00
00000aca: 00 00 00 00 00 00 00 00 00 00 00 00 00 00 00 00
00000ada: 00 00 00 00 00 00 00 00 00 00 00 00 00 00 00 00

# UDB_0_1_1_CONFIG (count=128)
00000aea: 00 00 00 00 00 00 00 00 00 00 00 00 00 00 00 00
00000afa: 00 00 00 00 00 00 00 00 00 00 00 00 00 00 00 00
00000b0a: 00 00 00 00 00 00 00 00 00 00 00 00 00 00 00 00
00000b1a: 00 00 00 00 00 00 00 00 00 00 00 00 00 00 00 00
00000b2a: 00 00 00 00 00 00 00 00 00 00 00 00 00 00 00 00
00000b3a: 00 00 00 00 00 00 00 00 00 00 00 00 00 00 00 00
00000b4a: 00 00 00 00 00 00 00 00 00 00 00 00 00 00 00 00
00000b5a: 00 00 00 00 00 00 00 00 00 00 00 00 00 00 00 00

# UDB_0_1_0_CONFIG (count=128)
00000b6a: 00 00 00 00 00 00 00 00 00 00 00 00 00 00 00 00
00000b7a: 00 00 00 00 00 00 00 00 00 00 00 00 00 00 00 00
00000b8a: 00 00 00 00 00 00 00 00 00 00 00 00 00 00 00 00
00000b9a: 00 00 00 00 00 00 00 00 00 00 00 00 00 00 00 00
00000baa: 00 00 00 00 00 00 00 00 00 00 00 00 00 00 00 00
00000bba: 00 00 00 00 00 00 00 00 00 00 00 00 00 00 00 00
00000bca: 00 00 00 00 00 00 00 00 00 00 00 00 00 00 00 00
00000bda: 00 00 00 00 00 00 00 00 00 00 00 00 00 00 00 00

# UDB_0_0_0_CONFIG (count=128)
00000bea: 00 00 00 00 00 00 00 00 00 00 00 00 00 00 00 00
00000bfa: 00 00 00 00 00 00 00 00 00 00 00 00 00 00 00 00
00000c0a: 00 00 00 00 00 00 00 00 00 00 00 00 00 00 00 00
00000c1a: 00 00 00 00 00 00 00 00 00 00 00 00 00 00 00 00
00000c2a: 00 00 00 00 00 00 00 00 00 00 00 00 00 00 00 00
00000c3a: 00 00 00 00 00 00 00 00 00 00 00 00 00 00 00 00
00000c4a: 00 00 00 00 00 00 00 00 00 00 00 00 00 00 00 00
00000c5a: 00 00 00 00 00 00 00 00 00 00 00 00 00 00 00 00

# UDB_0_0_1_CONFIG (count=128)
00000c6a: 00 00 00 00 00 00 00 00 00 00 00 00 00 00 00 00
00000c7a: 00 00 00 00 00 00 00 00 00 00 00 00 00 00 00 00
00000c8a: 00 00 00 00 00 00 00 00 00 00 00 00 00 00 00 00
00000c9a: 00 00 00 00 00 00 00 00 00 00 00 00 00 00 00 00
00000caa: 00 00 00 00 00 00 00 00 00 00 00 00 00 00 00 00
00000cba: 00 00 00 00 00 00 00 00 00 00 00 00 00 00 00 00
00000cca: 00 00 00 00 00 00 00 00 00 00 00 00 00 00 00 00
00000cda: 00 00 00 00 00 00 00 00 00 00 00 00 00 00 00 00

# UWRK_B0_WRK_DP_BITS (count=64)
00000cea: 00 00 00 00 00 00 00 00 00 00 00 00 00 00 00 00
00000cfa: 00 00 00 00 00 00 00 00 00 00 00 00 00 00 00 00
00000d0a: 00 00 00 00 00 00 00 00 00 00 00 00 00 00 00 00
00000d1a: 00 00 00 00 00 00 00 00 00 00 00 00 00 00 00 00

# UWRK_B0_WRK_STATCTL_BITS + 0x00000070 (count=32)
00000d2a: 00 00 00 00 00 00 00 00 00 00 00 00 00 00 00 00
00000d3a: 00 00 00 00 00 00 00 00 00 00 00 00 00 00 00 00

# UWRK_B1_WRK_DP_BITS (count=64)
00000d4a: 00 00 00 00 00 00 00 00 00 00 00 00 00 00 00 00
00000d5a: 00 00 00 00 00 00 00 00 00 00 00 00 00 00 00 00
00000d6a: 00 00 00 00 00 00 00 00 00 00 00 00 00 00 00 00
00000d7a: 00 00 00 00 00 00 00 00 00 00 00 00 00 00 00 00

# UWRK_B1_WRK_STATCTL_BITS + 0x00000070 (count=32)
00000d8a: 00 00 00 00 00 00 00 00 00 00 00 00 00 00 00 00
00000d9a: 00 00 00 00 00 00 00 00 00 00 00 00 00 00 00 00

# UCFG_BCTL1 (count=16)
00000daa: 00 00 00 00 00 00 00 00 00 00 00 00 00 00 00 00

# UCFG_BCTL0 (count=16)
00000dba: 00 00 00 00 00 00 00 00 00 00 00 00 00 00 00 00

# DSISWITCH_0_0 (count=128)
00000dca: 00 00 00 00 00 00 00 00 00 00 00 00 00 00 00 00
00000dda: 00 00 00 00 00 00 00 00 00 00 00 00 00 00 00 00
00000dea: 00 00 00 00 00 00 00 00 00 00 00 00 00 00 00 00
00000dfa: 00 00 00 00 00 00 00 00 00 00 00 00 00 00 00 00
00000e0a: 00 00 00 00 00 00 00 00 00 00 00 00 00 00 00 00
00000e1a: 00 00 00 00 00 00 00 00 00 00 00 00 00 00 00 00
00000e2a: 00 00 00 00 00 00 00 00 00 00 00 00 00 00 00 00
00000e3a: 00 00 00 00 00 00 00 00 00 00 00 00 00 00 00 00

# DSI0_0_HV_ROUTING + 0x00000080 (count=128)
00000e4a: 00 00 00 00 00 00 00 00 00 00 00 00 00 00 00 00
00000e5a: 00 00 00 00 00 00 00 00 00 00 00 00 00 00 00 00
00000e6a: 00 00 00 00 00 00 00 00 00 00 00 00 00 00 00 00
00000e7a: 00 00 00 00 00 00 00 00 00 00 00 00 00 00 00 00
00000e8a: 00 00 00 00 00 00 00 00 00 00 00 00 00 00 00 00
00000e9a: 00 00 00 00 00 00 00 00 00 00 00 00 00 00 00 00
00000eaa: 00 00 00 00 00 00 00 00 00 00 00 00 00 00 00 00
00000eba: 00 00 00 00 00 00 00 00 00 00 00 00 00 00 00 00

# DSISWITCH_0_1 (count=128)
00000eca: 00 00 00 00 00 00 00 00 00 00 00 00 00 00 00 00
00000eda: 00 00 00 00 00 00 00 00 00 00 00 00 00 00 00 00
00000eea: 00 00 00 00 00 00 00 00 00 00 00 00 00 00 00 00
00000efa: 00 00 00 00 00 00 00 00 00 00 00 00 00 00 00 00
00000f0a: 00 00 00 00 00 00 00 00 00 00 00 00 00 00 00 00
00000f1a: 00 00 00 00 00 00 00 00 00 00 00 00 00 00 00 00
00000f2a: 00 00 00 00 00 00 00 00 00 00 00 00 00 00 00 00
00000f3a: 00 00 00 00 00 00 00 00 00 00 00 00 00 00 00 00

# DSI0_1_HV_ROUTING + 0x00000080 (count=128)
00000f4a: 00 00 00 00 00 00 00 00 00 00 00 00 00 00 00 00
00000f5a: 00 00 00 00 00 00 00 00 00 00 00 00 00 00 00 00
00000f6a: 00 00 00 00 00 00 00 00 00 00 00 00 00 00 00 00
00000f7a: 00 00 00 00 00 00 00 00 00 00 00 00 00 00 00 00
00000f8a: 00 00 00 00 00 00 00 00 00 00 00 00 00 00 00 00
00000f9a: 00 00 00 00 00 00 00 00 00 00 00 00 00 00 00 00
00000faa: 00 00 00 00 00 00 00 00 00 00 00 00 00 00 00 00
00000fba: 00 00 00 00 00 00 00 00 00 00 00 00 00 00 00 00

# DSISWITCH_0_2 (count=128)
00000fca: 00 00 00 00 00 00 00 00 00 00 00 00 00 00 00 00
00000fda: 00 00 00 00 00 00 00 00 00 00 00 00 00 00 00 00
00000fea: 00 00 00 00 00 00 00 00 00 00 00 00 00 00 00 00
00000ffa: 00 00 00 00 00 00 00 00 00 00 00 00 00 00 00 00
0000100a: 00 00 00 00 00 00 00 00 00 00 00 00 00 00 00 00
0000101a: 00 00 00 00 00 00 00 00 00 00 00 00 00 00 00 00
0000102a: 00 00 00 00 00 00 00 00 00 00 00 00 00 00 00 00
0000103a: 00 00 00 00 00 00 00 00 00 00 00 00 00 00 00 00

# DSI0_2_HV_ROUTING + 0x00000080 (count=128)
0000104a: 00 00 00 00 00 00 00 00 00 00 00 00 00 00 00 00
0000105a: 00 00 00 00 00 00 00 00 00 00 00 00 00 00 00 00
0000106a: 00 00 00 00 00 00 00 00 00 00 00 00 00 00 00 00
0000107a: 00 00 00 00 00 00 00 00 00 00 00 00 00 00 00 00
0000108a: 00 00 00 00 00 00 00 00 00 00 00 00 00 00 00 00
0000109a: 00 00 00 00 00 00 00 00 00 00 00 00 00 00 00 00
000010aa: 00 00 00 00 00 00 00 00 00 00 00 00 00 00 00 00
000010ba: 00 00 00 00 00 00 00 00 00 00 00 00 00 00 00 00

# DSISWITCH_0_3 (count=128)
000010ca: 00 00 00 00 00 00 00 00 00 00 00 00 00 00 00 00
000010da: 00 00 00 00 00 00 00 00 00 00 00 00 00 00 00 00
000010ea: 00 00 00 00 00 00 00 00 00 00 00 00 00 00 00 00
000010fa: 00 00 00 00 00 00 00 00 00 00 00 00 00 00 00 00
0000110a: 00 00 00 00 00 00 00 00 00 00 00 00 00 00 00 00
0000111a: 00 00 00 00 00 00 00 00 00 00 00 00 00 00 00 00
0000112a: 00 00 00 00 00 00 00 00 00 00 00 00 00 00 00 00
0000113a: 00 00 00 00 00 00 00 00 00 00 00 00 00 00 00 00

# DSI0_3_HV_ROUTING + 0x00000080 (count=128)
0000114a: 00 00 00 00 00 00 00 00 00 00 00 00 00 00 00 00
0000115a: 00 00 00 00 00 00 00 00 00 00 00 00 00 00 00 00
0000116a: 00 00 00 00 00 00 00 00 00 00 00 00 00 00 00 00
0000117a: 00 00 00 00 00 00 00 00 00 00 00 00 00 00 00 00
0000118a: 00 00 00 00 00 00 00 00 00 00 00 00 00 00 00 00
0000119a: 00 00 00 00 00 00 00 00 00 00 00 00 00 00 00 00
000011aa: 00 00 00 00 00 00 00 00 00 00 00 00 00 00 00 00
000011ba: 00 00 00 00 00 00 00 00 00 00 00 00 00 00 00 00

# DSISWITCH_0_4 (count=128)
000011ca: 00 00 00 00 00 00 00 00 00 00 00 00 00 00 00 00
000011da: 00 00 00 00 00 00 00 00 00 00 00 00 00 00 00 00
000011ea: 00 00 00 00 00 00 00 00 00 00 00 00 00 00 00 00
000011fa: 00 00 00 00 00 00 00 00 00 00 00 00 00 00 00 00
0000120a: 00 00 00 00 00 00 00 00 00 00 00 00 00 00 00 00
0000121a: 00 00 00 00 00 00 00 00 00 00 00 00 00 00 00 00
0000122a: 00 00 00 00 00 00 00 00 00 00 00 00 00 00 00 00
0000123a: 00 00 00 00 00 00 00 00 00 00 00 00 00 00 00 00

# DSI0_4_HV_ROUTING + 0x00000080 (count=128)
0000124a: 00 00 00 00 00 00 00 00 00 00 00 00 00 00 00 00
0000125a: 00 00 00 00 00 00 00 00 00 00 00 00 00 00 00 00
0000126a: 00 00 00 00 00 00 00 00 00 00 00 00 00 00 00 00
0000127a: 00 00 00 00 00 00 00 00 00 00 00 00 00 00 00 00
0000128a: 00 00 00 00 00 00 00 00 00 00 00 00 00 00 00 00
0000129a: 00 00 00 00 00 00 00 00 00 00 00 00 00 00 00 00
000012aa: 00 00 00 00 00 00 00 00 00 00 00 00 00 00 00 00
000012ba: 00 00 00 00 00 00 00 00 00 00 00 00 00 00 00 00

# DSISWITCH_0_5 (count=128)
000012ca: 00 00 00 00 00 00 00 00 00 00 00 00 00 00 00 00
000012da: 00 00 00 00 00 00 00 00 00 00 00 00 00 00 00 00
000012ea: 00 00 00 00 00 00 00 00 00 00 00 00 00 00 00 00
000012fa: 00 00 00 00 00 00 00 00 00 00 00 00 00 00 00 00
0000130a: 00 00 00 00 00 00 00 00 00 00 00 00 00 00 00 00
0000131a: 00 00 00 00 00 00 00 00 00 00 00 00 00 00 00 00
0000132a: 00 00 00 00 00 00 00 00 00 00 00 00 00 00 00 00
0000133a: 00 00 00 00 00 00 00 00 00 00 00 00 00 00 00 00

# DSI0_5_HV_ROUTING + 0x00000080 (count=128)
0000134a: 00 00 00 00 00 00 00 00 00 00 00 00 00 00 00 00
0000135a: 00 00 00 00 00 00 00 00 00 00 00 00 00 00 00 00
0000136a: 00 00 00 00 00 00 00 00 00 00 00 00 00 00 00 00
0000137a: 00 00 00 00 00 00 00 00 00 00 00 00 00 00 00 00
0000138a: 00 00 00 00 00 00 00 00 00 00 00 00 00 00 00 00
0000139a: 00 00 00 00 00 00 00 00 00 00 00 00 00 00 00 00
000013aa: 00 00 00 00 00 00 00 00 00 00 00 00 00 00 00 00
000013ba: 00 00 00 00 00 00 00 00 00 00 00 00 00 00 00 00

# UDBSWITCH_0_0 (count=128)
000013ca: 00 00 00 00 00 00 00 00 00 00 00 00 00 00 00 00
000013da: 00 00 00 00 00 00 00 00 00 00 00 00 00 00 00 00
000013ea: 00 00 00 00 00 00 00 00 00 00 00 00 00 00 00 00
000013fa: 00 00 00 00 00 00 00 00 00 00 00 00 00 00 00 00
0000140a: 00 00 00 00 00 00 00 00 00 00 00 00 00 00 00 00
0000141a: 00 00 00 00 00 00 00 00 00 00 00 00 00 00 00 00
0000142a: 00 00 00 00 00 00 00 00 00 00 00 00 00 00 00 00
0000143a: 00 00 00 00 00 00 00 00 00 00 00 00 00 00 00 00

# UDB_1_0_HV_ROUTING + 0x00000080 (count=128)
0000144a: 00 00 00 00 00 00 00 00 00 00 00 00 00 00 00 00
0000145a: 00 00 00 00 00 00 00 00 00 00 00 00 00 00 00 00
0000146a: 00 00 00 00 00 00 00 00 00 00 00 00 00 00 00 00
0000147a: 00 00 00 00 00 00 00 00 00 00 00 00 00 00 00 00
0000148a: 00 00 00 00 00 00 00 00 00 00 00 00 00 00 00 00
0000149a: 00 00 00 00 00 00 00 00 00 00 00 00 00 00 00 00
000014aa: 00 00 00 00 00 00 00 00 00 00 00 00 00 00 00 00
000014ba: 00 00 00 00 00 00 00 00 00 00 00 00 00 00 00 00

# UDBSWITCH_1_0 (count=128)
000014ca: 00 00 00 00 00 00 00 00 00 00 00 00 00 00 00 00
000014da: 00 00 00 00 00 00 00 00 00 00 00 00 00 00 00 00
000014ea: 00 00 00 00 00 00 00 00 00 00 00 00 00 00 00 00
000014fa: 00 00 00 00 00 00 00 00 00 00 00 00 00 00 00 00
0000150a: 00 00 00 00 00 00 00 00 00 00 00 00 00 00 00 00
0000151a: 00 00 00 00 00 00 00 00 00 00 00 00 00 00 00 00
0000152a: 00 00 00 00 00 00 00 00 00 00 00 00 00 00 00 00
0000153a: 00 00 00 00 00 00 00 00 00 00 00 00 00 00 00 00

# UDB_2_0_HV_ROUTING + 0x00000080 (count=128)
0000154a: 00 00 00 00 00 00 00 00 00 00 00 00 00 00 00 00
0000155a: 00 00 00 00 00 00 00 00 00 00 00 00 00 00 00 00
0000156a: 00 00 00 00 00 00 00 00 00 00 00 00 00 00 00 00
0000157a: 00 00 00 00 00 00 00 00 00 00 00 00 00 00 00 00
0000158a: 00 00 00 00 00 00 00 00 00 00 00 00 00 00 00 00
0000159a: 00 00 00 00 00 00 00 00 00 00 00 00 00 00 00 00
000015aa: 00 00 00 00 00 00 00 00 00 00 00 00 00 00 00 00
000015ba: 00 00 00 00 00 00 00 00 00 00 00 00 00 00 00 00

# UDBSWITCH_0_1 (count=128)
000015ca: 00 00 00 00 00 00 00 00 00 00 00 00 00 00 00 00
000015da: 00 00 00 00 00 00 00 00 00 00 00 00 00 00 00 00
000015ea: 00 00 00 00 00 00 00 00 00 00 00 00 00 00 00 00
000015fa: 00 00 00 00 00 00 00 00 00 00 00 00 00 00 00 00
0000160a: 00 00 00 00 00 00 00 00 00 00 00 00 00 00 00 00
0000161a: 00 00 00 00 00 00 00 00 00 00 00 00 00 00 00 00
0000162a: 00 00 00 00 00 00 00 00 00 00 00 00 00 00 00 00
0000163a: 00 00 00 00 00 00 00 00 00 00 00 00 00 00 00 00

# UDB_1_1_HV_ROUTING + 0x00000080 (count=128)
0000164a: 00 00 00 00 00 00 00 00 00 00 00 00 00 00 00 00
0000165a: 00 00 00 00 00 00 00 00 00 00 00 00 00 00 00 00
0000166a: 00 00 00 00 00 00 00 00 00 00 00 00 00 00 00 00
0000167a: 00 00 00 00 00 00 00 00 00 00 00 00 00 00 00 00
0000168a: 00 00 00 00 00 00 00 00 00 00 00 00 00 00 00 00
0000169a: 00 00 00 00 00 00 00 00 00 00 00 00 00 00 00 00
000016aa: 00 00 00 00 00 00 00 00 00 00 00 00 00 00 00 00
000016ba: 00 00 00 00 00 00 00 00 00 00 00 00 00 00 00 00

# UDBSWITCH_1_1 (count=128)
000016ca: 00 00 00 00 00 00 00 00 00 00 00 00 00 00 00 00
000016da: 00 00 00 00 00 00 00 00 00 00 00 00 00 00 00 00
000016ea: 00 00 00 00 00 00 00 00 00 00 00 00 00 00 00 00
000016fa: 00 00 00 00 00 00 00 00 00 00 00 00 00 00 00 00
0000170a: 00 00 00 00 00 00 00 00 00 00 00 00 00 00 00 00
0000171a: 00 00 00 00 00 00 00 00 00 00 00 00 00 00 00 00
0000172a: 00 00 00 00 00 00 00 00 00 00 00 00 00 00 00 00
0000173a: 00 00 00 00 00 00 00 00 00 00 00 00 00 00 00 00

# UDB_2_1_HV_ROUTING + 0x00000080 (count=128)
0000174a: 00 00 00 00 00 00 00 00 00 00 00 00 00 00 00 00
0000175a: 00 00 00 00 00 00 00 00 00 00 00 00 00 00 00 00
0000176a: 00 00 00 00 00 00 00 00 00 00 00 00 00 00 00 00
0000177a: 00 00 00 00 00 00 00 00 00 00 00 00 00 00 00 00
0000178a: 00 00 00 00 00 00 00 00 00 00 00 00 00 00 00 00
0000179a: 00 00 00 00 00 00 00 00 00 00 00 00 00 00 00 00
000017aa: 00 00 00 00 00 00 00 00 00 00 00 00 00 00 00 00
000017ba: 00 00 00 00 00 00 00 00 00 00 00 00 00 00 00 00

# UDBSWITCH_0_2 (count=128)
000017ca: 00 00 00 00 00 00 00 00 00 00 00 00 00 00 00 00
000017da: 00 00 00 00 00 00 00 00 00 00 00 00 00 00 00 00
000017ea: 00 00 00 00 00 00 00 00 00 00 00 00 00 00 00 00
000017fa: 00 00 00 00 00 00 00 00 00 00 00 00 00 00 00 00
0000180a: 00 00 00 00 00 00 00 00 00 00 00 00 00 00 00 00
0000181a: 00 00 00 00 00 00 00 00 00 00 00 00 00 00 00 00
0000182a: 00 00 00 00 00 00 00 00 00 00 00 00 00 00 00 00
0000183a: 00 00 00 00 00 00 00 00 00 00 00 00 00 00 00 00

# UDB_1_2_HV_ROUTING + 0x00000080 (count=128)
0000184a: 00 00 00 00 00 00 00 00 00 00 00 00 00 00 00 00
0000185a: 00 00 00 00 00 00 00 00 00 00 00 00 00 00 00 00
0000186a: 00 00 00 00 00 00 00 00 00 00 00 00 00 00 00 00
0000187a: 00 00 00 00 00 00 00 00 00 00 00 00 00 00 00 00
0000188a: 00 00 00 00 00 00 00 00 00 00 00 00 00 00 00 00
0000189a: 00 00 00 00 00 00 00 00 00 00 00 00 00 00 00 00
000018aa: 00 00 00 00 00 00 00 00 00 00 00 00 00 00 00 00
000018ba: 00 00 00 00 00 00 00 00 00 00 00 00 00 00 00 00

# UDBSWITCH_1_2 (count=128)
000018ca: 00 00 00 00 00 00 00 00 00 00 00 00 00 00 00 00
000018da: 00 00 00 00 00 00 00 00 00 00 00 00 00 00 00 00
000018ea: 00 00 00 00 00 00 00 00 00 00 00 00 00 00 00 00
000018fa: 00 00 00 00 00 00 00 00 00 00 00 00 00 00 00 00
0000190a: 00 00 00 00 00 00 00 00 00 00 00 00 00 00 00 00
0000191a: 00 00 00 00 00 00 00 00 00 00 00 00 00 00 00 00
0000192a: 00 00 00 00 00 00 00 00 00 00 00 00 00 00 00 00
0000193a: 00 00 00 00 00 00 00 00 00 00 00 00 00 00 00 00

# UDB_2_2_HV_ROUTING + 0x00000080 (count=128)
0000194a: 00 00 00 00 00 00 00 00 00 00 00 00 00 00 00 00
0000195a: 00 00 00 00 00 00 00 00 00 00 00 00 00 00 00 00
0000196a: 00 00 00 00 00 00 00 00 00 00 00 00 00 00 00 00
0000197a: 00 00 00 00 00 00 00 00 00 00 00 00 00 00 00 00
0000198a: 00 00 00 00 00 00 00 00 00 00 00 00 00 00 00 00
0000199a: 00 00 00 00 00 00 00 00 00 00 00 00 00 00 00 00
000019aa: 00 00 00 00 00 00 00 00 00 00 00 00 00 00 00 00
000019ba: 00 00 00 00 00 00 00 00 00 00 00 00 00 00 00 00

# UDBSWITCH_0_3 (count=128)
000019ca: 00 00 00 00 00 00 00 00 00 00 00 00 00 00 00 00
000019da: 00 00 00 00 00 00 00 00 00 00 00 00 00 00 00 00
000019ea: 00 00 00 00 00 00 00 00 00 00 00 00 00 00 00 00
000019fa: 00 00 00 00 00 00 00 00 00 00 00 00 00 00 00 00
00001a0a: 00 00 00 00 00 00 00 00 00 00 00 00 00 00 00 00
00001a1a: 00 00 00 00 00 00 00 00 00 00 00 00 00 00 00 00
00001a2a: 00 00 00 00 00 00 00 00 00 00 00 00 00 00 00 00
00001a3a: 00 00 00 00 00 00 00 00 00 00 00 00 00 00 00 00

# UDB_1_3_HV_ROUTING + 0x00000080 (count=128)
00001a4a: 00 00 00 00 00 00 00 00 00 00 00 00 00 00 00 00
00001a5a: 00 00 00 00 00 00 00 00 00 00 00 00 00 00 00 00
00001a6a: 00 00 00 00 00 00 00 00 00 00 00 00 00 00 00 00
00001a7a: 00 00 00 00 00 00 00 00 00 00 00 00 00 00 00 00
00001a8a: 00 00 00 00 00 00 00 00 00 00 00 00 00 00 00 00
00001a9a: 00 00 00 00 00 00 00 00 00 00 00 00 00 00 00 00
00001aaa: 00 00 00 00 00 00 00 00 00 00 00 00 00 00 00 00
00001aba: 00 00 00 00 00 00 00 00 00 00 00 00 00 00 00 00

# UDBSWITCH_1_3 (count=128)
00001aca: 00 00 00 00 00 00 00 00 00 00 00 00 00 00 00 00
00001ada: 00 00 00 00 00 00 00 00 00 00 00 00 00 00 00 00
00001aea: 00 00 00 00 00 00 00 00 00 00 00 00 00 00 00 00
00001afa: 00 00 00 00 00 00 00 00 00 00 00 00 00 00 00 00
00001b0a: 00 00 00 00 00 00 00 00 00 00 00 00 00 00 00 00
00001b1a: 00 00 00 00 00 00 00 00 00 00 00 00 00 00 00 00
00001b2a: 00 00 00 00 00 00 00 00 00 00 00 00 00 00 00 00
00001b3a: 00 00 00 00 00 00 00 00 00 00 00 00 00 00 00 00

# UDB_2_3_HV_ROUTING + 0x00000080 (count=128)
00001b4a: 00 00 00 00 00 00 00 00 00 00 00 00 00 00 00 00
00001b5a: 00 00 00 00 00 00 00 00 00 00 00 00 00 00 00 00
00001b6a: 00 00 00 00 00 00 00 00 00 00 00 00 00 00 00 00
00001b7a: 00 00 00 00 00 00 00 00 00 00 00 00 00 00 00 00
00001b8a: 00 00 00 00 00 00 00 00 00 00 00 00 00 00 00 00
00001b9a: 00 00 00 00 00 00 00 00 00 00 00 00 00 00 00 00
00001baa: 00 00 00 00 00 00 00 00 00 00 00 00 00 00 00 00
00001bba: 00 00 00 00 00 00 00 00 00 00 00 00 00 00 00 00

# UDBSWITCH_0_4 (count=128)
00001bca: 00 00 00 00 00 00 00 00 00 00 00 00 00 00 00 00
00001bda: 00 00 00 00 00 00 00 00 00 00 00 00 00 00 00 00
00001bea: 00 00 00 00 00 00 00 00 00 00 00 00 00 00 00 00
00001bfa: 00 00 00 00 00 00 00 00 00 00 00 00 00 00 00 00
00001c0a: 00 00 00 00 00 00 00 00 00 00 00 00 00 00 00 00
00001c1a: 00 00 00 00 00 00 00 00 00 00 00 00 00 00 00 00
00001c2a: 00 00 00 00 00 00 00 00 00 00 00 00 00 00 00 00
00001c3a: 00 00 00 00 00 00 00 00 00 00 00 00 00 00 00 00

# UDB_1_4_HV_ROUTING + 0x00000080 (count=128)
00001c4a: 00 00 00 00 00 00 00 00 00 00 00 00 00 00 00 00
00001c5a: 00 00 00 00 00 00 00 00 00 00 00 00 00 00 00 00
00001c6a: 00 00 00 00 00 00 00 00 00 00 00 00 00 00 00 00
00001c7a: 00 00 00 00 00 00 00 00 00 00 00 00 00 00 00 00
00001c8a: 00 00 00 00 00 00 00 00 00 00 00 00 00 00 00 00
00001c9a: 00 00 00 00 00 00 00 00 00 00 00 00 00 00 00 00
00001caa: 00 00 00 00 00 00 00 00 00 00 00 00 00 00 00 00
00001cba: 00 00 00 00 00 00 00 00 00 00 00 00 00 00 00 00

# UDBSWITCH_1_4 (count=128)
00001cca: 00 00 00 00 00 00 00 00 00 00 00 00 00 00 00 00
00001cda: 00 00 00 00 00 00 00 00 00 00 00 00 00 00 00 00
00001cea: 00 00 00 00 00 00 00 00 00 00 00 00 00 00 00 00
00001cfa: 00 00 00 00 00 00 00 00 00 00 00 00 00 00 00 00
00001d0a: 00 00 00 00 00 00 00 00 00 00 00 00 00 00 00 00
00001d1a: 00 00 00 00 00 00 00 00 00 00 00 00 00 00 00 00
00001d2a: 00 00 00 00 00 00 00 00 00 00 00 00 00 00 00 00
00001d3a: 00 00 00 00 00 00 00 00 00 00 00 00 00 00 00 00

# UDB_2_4_HV_ROUTING + 0x00000080 (count=128)
00001d4a: 00 00 00 00 00 00 00 00 00 00 00 00 00 00 00 00
00001d5a: 00 00 00 00 00 00 00 00 00 00 00 00 00 00 00 00
00001d6a: 00 00 00 00 00 00 00 00 00 00 00 00 00 00 00 00
00001d7a: 00 00 00 00 00 00 00 00 00 00 00 00 00 00 00 00
00001d8a: 00 00 00 00 00 00 00 00 00 00 00 00 00 00 00 00
00001d9a: 00 00 00 00 00 00 00 00 00 00 00 00 00 00 00 00
00001daa: 00 00 00 00 00 00 00 00 00 00 00 00 00 00 00 00
00001dba: 00 00 00 00 00 00 00 00 00 00 00 00 00 00 00 00

# UDBSWITCH_0_5 (count=128)
00001dca: 00 00 00 00 00 00 00 00 00 00 00 00 00 00 00 00
00001dda: 00 00 00 00 00 00 00 00 00 00 00 00 00 00 00 00
00001dea: 00 00 00 00 00 00 00 00 00 00 00 00 00 00 00 00
00001dfa: 00 00 00 00 00 00 00 00 00 00 00 00 00 00 00 00
00001e0a: 00 00 00 00 00 00 00 00 00 00 00 00 00 00 00 00
00001e1a: 00 00 00 00 00 00 00 00 00 00 00 00 00 00 00 00
00001e2a: 00 00 00 00 00 00 00 00 00 00 00 00 00 00 00 00
00001e3a: 00 00 00 00 00 00 00 00 00 00 00 00 00 00 00 00

# UDB_1_5_HV_ROUTING + 0x00000080 (count=128)
00001e4a: 00 00 00 00 00 00 00 00 00 00 00 00 00 00 00 00
00001e5a: 00 00 00 00 00 00 00 00 00 00 00 00 00 00 00 00
00001e6a: 00 00 00 00 00 00 00 00 00 00 00 00 00 00 00 00
00001e7a: 00 00 00 00 00 00 00 00 00 00 00 00 00 00 00 00
00001e8a: 00 00 00 00 00 00 00 00 00 00 00 00 00 00 00 00
00001e9a: 00 00 00 00 00 00 00 00 00 00 00 00 00 00 00 00
00001eaa: 00 00 00 00 00 00 00 00 00 00 00 00 00 00 00 00
00001eba: 00 00 00 00 00 00 00 00 00 00 00 00 00 00 00 00

# UDBSWITCH_1_5 (count=128)
00001eca: 00 00 00 00 00 00 00 00 00 00 00 00 00 00 00 00
00001eda: 00 00 00 00 00 00 00 00 00 00 00 00 00 00 00 00
00001eea: 00 00 00 00 00 00 00 00 00 00 00 00 00 00 00 00
00001efa: 00 00 00 00 00 00 00 00 00 00 00 00 00 00 00 00
00001f0a: 00 00 00 00 00 00 00 00 00 00 00 00 00 00 00 00
00001f1a: 00 00 00 00 00 00 00 00 00 00 00 00 00 00 00 00
00001f2a: 00 00 00 00 00 00 00 00 00 00 00 00 00 00 00 00
00001f3a: 00 00 00 00 00 00 00 00 00 00 00 00 00 00 00 00

# UDB_2_5_HV_ROUTING + 0x00000080 (count=128)
00001f4a: 00 00 00 00 00 00 00 00 00 00 00 00 00 00 00 00
00001f5a: 00 00 00 00 00 00 00 00 00 00 00 00 00 00 00 00
00001f6a: 00 00 00 00 00 00 00 00 00 00 00 00 00 00 00 00
00001f7a: 00 00 00 00 00 00 00 00 00 00 00 00 00 00 00 00
00001f8a: 00 00 00 00 00 00 00 00 00 00 00 00 00 00 00 00
00001f9a: 00 00 00 00 00 00 00 00 00 00 00 00 00 00 00 00
00001faa: 00 00 00 00 00 00 00 00 00 00 00 00 00 00 00 00
00001fba: 00 00 00 00 00 00 00 00 00 00 00 00 00 00 00 00

# DSISWITCH_1_0 (count=128)
00001fca: 00 00 00 00 00 00 00 00 00 00 00 00 00 00 00 00
00001fda: 00 00 00 00 00 00 00 00 00 00 00 00 00 00 00 00
00001fea: 00 00 00 00 00 00 00 00 00 00 00 00 00 00 00 00
00001ffa: 00 00 00 00 00 00 00 00 00 00 00 00 00 00 00 00
0000200a: 00 00 00 00 00 00 00 00 00 00 00 00 00 00 00 00
0000201a: 00 00 00 00 00 00 00 00 00 00 00 00 00 00 00 00
0000202a: 00 00 00 00 00 00 00 00 00 00 00 00 00 00 00 00
0000203a: 00 00 00 00 00 00 00 00 00 00 00 00 00 00 00 00

# DSI3_0_HV_ROUTING + 0x00000080 (count=128)
0000204a: 00 00 00 00 00 00 00 00 00 00 00 00 00 00 00 00
0000205a: 00 00 00 00 00 00 00 00 00 00 00 00 00 00 00 00
0000206a: 00 00 00 00 00 00 00 00 00 00 00 00 00 00 00 00
0000207a: 00 00 00 00 00 00 00 00 00 00 00 00 00 00 00 00
0000208a: 00 00 00 00 00 00 00 00 00 00 00 00 00 00 00 00
0000209a: 00 00 00 00 00 00 00 00 00 00 00 00 00 00 00 00
000020aa: 00 00 00 00 00 00 00 00 00 00 00 00 00 00 00 00
000020ba: 00 00 00 00 00 00 00 00 00 00 00 00 00 00 00 00

# DSISWITCH_1_1 (count=128)
000020ca: 00 00 00 00 00 00 00 00 00 00 00 00 00 00 00 00
000020da: 00 00 00 00 00 00 00 00 00 00 00 00 00 00 00 00
000020ea: 00 00 00 00 00 00 00 00 00 00 00 00 00 00 00 00
000020fa: 00 00 00 00 00 00 00 00 00 00 00 00 00 00 00 00
0000210a: 00 00 00 00 00 00 00 00 00 00 00 00 00 00 00 00
0000211a: 00 00 00 00 00 00 00 00 00 00 00 00 00 00 00 00
0000212a: 00 00 00 00 00 00 00 00 00 00 00 00 00 00 00 00
0000213a: 00 00 00 00 00 00 00 00 00 00 00 00 00 00 00 00

# DSI3_1_HV_ROUTING + 0x00000080 (count=128)
0000214a: 00 00 00 00 00 00 00 00 00 00 00 00 00 00 00 00
0000215a: 00 00 00 00 00 00 00 00 00 00 00 00 00 00 00 00
0000216a: 00 00 00 00 00 00 00 00 00 00 00 00 00 00 00 00
0000217a: 00 00 00 00 00 00 00 00 00 00 00 00 00 00 00 00
0000218a: 00 00 00 00 00 00 00 00 00 00 00 00 00 00 00 00
0000219a: 00 00 00 00 00 00 00 00 00 00 00 00 00 00 00 00
000021aa: 00 00 00 00 00 00 00 00 00 00 00 00 00 00 00 00
000021ba: 00 00 00 00 00 00 00 00 00 00 00 00 00 00 00 00

# DSISWITCH_1_2 (count=128)
000021ca: 00 00 00 00 00 00 00 00 00 00 00 00 00 00 00 00
000021da: 00 00 00 00 00 00 00 00 00 00 00 00 00 00 00 00
000021ea: 00 00 00 00 00 00 00 00 00 00 00 00 00 00 00 00
000021fa: 00 00 00 00 00 00 00 00 00 00 00 00 00 00 00 00
0000220a: 00 00 00 00 00 00 00 00 00 00 00 00 00 00 00 00
0000221a: 00 00 00 00 00 00 00 00 00 00 00 00 00 00 00 00
0000222a: 00 00 00 00 00 00 00 00 00 00 00 00 00 00 00 00
0000223a: 00 00 00 00 00 00 00 00 00 00 00 00 00 00 00 00

# DSI3_2_HV_ROUTING + 0x00000080 (count=128)
0000224a: 00 00 00 00 00 00 00 00 00 00 00 00 00 00 00 00
0000225a: 00 00 00 00 00 00 00 00 00 00 00 00 00 00 00 00
0000226a: 00 00 00 00 00 00 00 00 00 00 00 00 00 00 00 00
0000227a: 00 00 00 00 00 00 00 00 00 00 00 00 00 00 00 00
0000228a: 00 00 00 00 00 00 00 00 00 00 00 00 00 00 00 00
0000229a: 00 00 00 00 00 00 00 00 00 00 00 00 00 00 00 00
000022aa: 00 00 00 00 00 00 00 00 00 00 00 00 00 00 00 00
000022ba: 00 00 00 00 00 00 00 00 00 00 00 00 00 00 00 00

# DSISWITCH_1_3 (count=128)
000022ca: 00 00 00 00 00 00 00 00 00 00 00 00 00 00 00 00
000022da: 00 00 00 00 00 00 00 00 00 00 00 00 00 00 00 00
000022ea: 00 00 00 00 00 00 00 00 00 00 00 00 00 00 00 00
000022fa: 00 00 00 00 00 00 00 00 00 00 00 00 00 00 00 00
0000230a: 00 00 00 00 00 00 00 00 00 00 00 00 00 00 00 00
0000231a: 00 00 00 00 00 00 00 00 00 00 00 00 00 00 00 00
0000232a: 00 00 00 00 00 00 00 00 00 00 00 00 00 00 00 00
0000233a: 00 00 00 00 00 00 00 00 00 00 00 00 00 00 00 00

# DSI3_3_HV_ROUTING + 0x00000080 (count=128)
0000234a: 00 00 00 00 00 00 00 00 00 00 00 00 00 00 00 00
0000235a: 00 00 00 00 00 00 00 00 00 00 00 00 00 00 00 00
0000236a: 00 00 00 00 00 00 00 00 00 00 00 00 00 00 00 00
0000237a: 00 00 00 00 00 00 00 00 00 00 00 00 00 00 00 00
0000238a: 00 00 00 00 00 00 00 00 00 00 00 00 00 00 00 00
0000239a: 00 00 00 00 00 00 00 00 00 00 00 00 00 00 00 00
000023aa: 00 00 00 00 00 00 00 00 00 00 00 00 00 00 00 00
000023ba: 00 00 00 00 00 00 00 00 00 00 00 00 00 00 00 00

# DSISWITCH_1_4 (count=128)
000023ca: 00 00 00 00 00 00 00 00 00 00 00 00 00 00 00 00
000023da: 00 00 00 00 00 00 00 00 00 00 00 00 00 00 00 00
000023ea: 00 00 00 00 00 00 00 00 00 00 00 00 00 00 00 00
000023fa: 00 00 00 00 00 00 00 00 00 00 00 00 00 00 00 00
0000240a: 00 00 00 00 00 00 00 00 00 00 00 00 00 00 00 00
0000241a: 00 00 00 00 00 00 00 00 00 00 00 00 00 00 00 00
0000242a: 00 00 00 00 00 00 00 00 00 00 00 00 00 00 00 00
0000243a: 00 00 00 00 00 00 00 00 00 00 00 00 00 00 00 00

# DSI3_4_HV_ROUTING + 0x00000080 (count=128)
0000244a: 00 00 00 00 00 00 00 00 00 00 00 00 00 00 00 00
0000245a: 00 00 00 00 00 00 00 00 00 00 00 00 00 00 00 00
0000246a: 00 00 00 00 00 00 00 00 00 00 00 00 00 00 00 00
0000247a: 00 00 00 00 00 00 00 00 00 00 00 00 00 00 00 00
0000248a: 00 00 00 00 00 00 00 00 00 00 00 00 00 00 00 00
0000249a: 00 00 00 00 00 00 00 00 00 00 00 00 00 00 00 00
000024aa: 00 00 00 00 00 00 00 00 00 00 00 00 00 00 00 00
000024ba: 00 00 00 00 00 00 00 00 00 00 00 00 00 00 00 00

# DSISWITCH_1_5 (count=128)
000024ca: 00 00 00 00 00 00 00 00 00 00 00 00 00 00 00 00
000024da: 00 00 00 00 00 00 00 00 00 00 00 00 00 00 00 00
000024ea: 00 00 00 00 00 00 00 00 00 00 00 00 00 00 00 00
000024fa: 00 00 00 00 00 00 00 00 00 00 00 00 00 00 00 00
0000250a: 00 00 00 00 00 00 00 00 00 00 00 00 00 00 00 00
0000251a: 00 00 00 00 00 00 00 00 00 00 00 00 00 00 00 00
0000252a: 00 00 00 00 00 00 00 00 00 00 00 00 00 00 00 00
0000253a: 00 00 00 00 00 00 00 00 00 00 00 00 00 00 00 00

# DSI3_5_HV_ROUTING + 0x00000080 (count=128)
0000254a: 00 00 00 00 00 00 00 00 00 00 00 00 00 00 00 00
0000255a: 00 00 00 00 00 00 00 00 00 00 00 00 00 00 00 00
0000256a: 00 00 00 00 00 00 00 00 00 00 00 00 00 00 00 00
0000257a: 00 00 00 00 00 00 00 00 00 00 00 00 00 00 00 00
0000258a: 00 00 00 00 00 00 00 00 00 00 00 00 00 00 00 00
0000259a: 00 00 00 00 00 00 00 00 00 00 00 00 00 00 00 00
000025aa: 00 00 00 00 00 00 00 00 00 00 00 00 00 00 00 00
000025ba: 00 00 00 00 00 00 00 00 00 00 00 00 00 00 00 00

